Chapter 3 Vectors | Advanced R in Korean
…
as_tibble(df3, rownames = "name")
#> # A tibble: 3 x 3
#>   name    age hair 
#>   <chr> <dbl> <fct>
#> 1 Bob      35 blond
#> 2 Susan    27 brown
#> 3 Sam      18 black

3.6.3 Printing

티블과 데이터 프레임의 가장 명확한 차이점 중 하나는 그들이 출력되는 방식입니다. 아마 여러분은 데이터 프레임이 어떻게 출력되는 지는 익숙하실 겁니다. dplyr 패키지에 들어있는 예제 데이터를 사용해서 가장 큰 차이점을 보여드리겠습니다.

dplyr::starwars
#> # A tibble: 87 x 13
#>    name  height  mass hair_color skin_color eye_color birth_year gender
#>    <chr>  <int> <dbl> <chr>      <chr>      <chr>          <dbl> <chr> 
#>  1 Luke…    172    77 blond      fair       blue            19   male  
#>  2 C-3PO    167    75 <NA>       gold       yellow         112   <NA>  
#>  3 R2-D2     96    32 <NA>       white, bl… red             33   <NA>  
#>  4 Dart…    202   136 none       white      yellow          41.9 male  
#>  5 Leia…    150    49 brown      light      brown           19   female
#>  6 Owen…    178   120 brown, gr… light      blue            52   male  
#>  7 Beru…    165    75 brown      light      blue            47   female
#>  8 R5-D4     97    32 <NA>       white, red red             NA   <NA>  
#>  9 Bigg…    183    84 black      light      brown           24   male  
#> 10 Obi-…    182    77 auburn, w… fair       blue-gray       57   male  
#> # … with 77 more rows, and 5 more variables: homeworld <chr>, species <chr>,
#> #   films <list>, vehicles <list>, starships <list>
…
